property_name,yardi_code,units,street_address,city,state,zip,property_phone,property_manager,property_supervisor,property_email
Club at Copperleaf,copper,240,14811 West Rd,Houston,TX,77095,281-550-4948,Sandra Luevano,Ashley Johnson,clubcopperleaf@gaia-pm.com
Cypress Commons,cypress,252,9721 Cypresswood Dr,Houston,TX,77070,281-890-1700,Cheryl Petrash,Ashley Johnson,cypresscommons@gaia-pm.com
Enclave at Mary's Creek,enclave,240,2900 Pearland Parkway,Pearland,TX,77581,281-412-3100,Charlotte Cohoon,Crystal Jackson,enclave@gaia-pm.com
Eaglecrest,eagle,200,5303 Atascocita Rd,Humble ,TX,77346,281-852-2585,Tristen Kress,Crystal Jackson,eaglecrest@gaia-pm.com
Lighthouse,willow,336,12330 N Gessner Rd,Houston,TX,77064,832-237-6060,Michelle Nixon,Ashley Johnson,lighthouse@gaia-pm.com
Mansions,"shadow,shahao",260,12200 Overbrook Lane,Houston,TX,77077,281-589-6949,Yris Bauerkemper,Ashley Johnson,mansions@gaia-pm.com
Ranch at City Park,citypark,270,11900 City Park Central Ln,Houston,TX,77047,713-413-9955,Jason Richards,Crystal Jackson,ranchcitypark@gaia-pm.com
The Steeples,steeples,409,2151 Kirkwood Dr,Houston,TX,77077,281-558-6284,Marlene Rocha,Ashley Johnson,steeples@gaia-pm.com
Timberlakes at Atascocita,timber,312,18551 Timber Forest Dr,Humble ,TX,77346,281-812-2941,,Crystal Jackson,timberlakes@gaia-pm.com
Villas at Coronado,coronado,344,9111 Lakes at 610 Dr,Houston,TX,77054,713-667-0200,Necole Steward,Crystal Jackson,villascoronado@gaia-pm.com
Veranda at Centerfield,veranda,400,7700 Willowchase Blvd,Houston,TX,77070,281-970-7576,Jennifer Mendoza,Ashley Johnson,veranda@gaia-pm.com
Whispering Winds,whisper,286,2902 Whispering Winds Drive,Pearland,TX,77581,281) 997-1733,Annette Vaughn,Crystal Jackson,whisperingwinds@gaia-pm.com
Gaia Gardens,gaiacolc,92,12 Balaban Rd,Colchester,CT,06415,860-531-9174,Stefany Reardon,Gary Feigin,gaiagardens@gaia.pm.com
Avon Place,"avon,avonassc",164,46 Avonwood Rd,Avon,CT,06001,860-677-1196,Stefany Reardon,Gary Feigin,avonplace@gaia-pm.com
Gaia Grand,mcnil650,59,650 Park Avenue,East Orange,NJ,07017,862-252-9752,Tayllor Cooper,Gary Feigin,gaiagrand@gaia-pm.com
Gaia Renaissance,mcnil394,61,394 S. Harrison Street,East Orange,NJ,07018,862-252-9752,Tayllor Cooper,Gary Feigin,gaiarenaissance@gaia-pm.com
Winchester Park & Woods,winchest,478,125 Village Green North,Riverside,RI,02915,401-438-3077,Milena Williamson,Gary Feigin,winchester@gaia-pm.com